[
  {
    "type": "FEE_POLICY_1",
    "feeDetail": {
      "FeeActualTotalAmount": "1359.0",
      "FeeDescription": "Texas Residential Owner Policy (T1R)",
      "FeePaidToType": "ThirdPartyProvider",
      "FeeType": "TitleOwnersCoveragePremium",
      "GFEDisclosedFeeAmount": "627.0",
      "DisclosureSectionNumber": "H",
      "DisclosureSectionName": "Owner's Title Insurance",
      "DisclosureItemName": "Title – Owner's Title Insurance (optional) (Texas Residential Owner Policy (T1R))",
      "DisclosureHUDLine": "HUD-1 Line 1103"
    },
    "feePaidTo": null,
    "split": [
      {
        "buyer": [
          0,
          0,
          "627.0",
          0
        ]
      },
      {
        "seller": [
          0,
          0,
          0,
          "0.0"
        ]
      },
      {
        "other": [
          0,
          0,
          0,
          0
        ]
      }
    ]
  },
  {
    "type": "FEE_POLICY_2",
    "feeDetail": {
      "FeeActualTotalAmount": "100.0",
      "FeeDescription": "Texas Mortgagee Policy (T2)",
      "FeePaidToType": "ThirdPartyProvider",
      "FeeType": "TitleLendersCoveragePremium",
      "GFEDisclosedFeeAmount": "832.0",
      "DisclosureSectionNumber": "B or C",
      "DisclosureSectionName": "Lender's Title Insurance",
      "DisclosureItemName": "Title – Lender’s Title Insurance(Texas Mortgagee Policy (T2))",
      "DisclosureHUDLine": "HUD-1 Line 1104"
    },
    "feePaidTo": null,
    "split": [
      {
        "buyer": [
          0,
          0,
          "832.0",
          0
        ]
      },
      {
        "seller": [
          0,
          0,
          0,
          "0.0"
        ]
      },
      {
        "other": [
          0,
          0,
          0,
          0
        ]
      }
    ]
  },
  {
    "type": "FEE_POLICY_2_ENDR_1",
    "feeDetail": {
      "FeeActualTotalAmount": "25.0",
      "FeeDescription": "[0884 TX] T-17 PUD End Single (R-11k)",
      "FeePaidToType": "ThirdPartyProvider",
      "FeeType": "TitleEndorsementFee",
      "DisclosureSectionNumber": "B or C",
      "DisclosureSectionName": "Lender's Title Insurance",
      "DisclosureItemName": "Title – Lender’s Title Insurance(Texas Mortgagee Policy (T2))",
      "DisclosureHUDLine": "HUD-1 Line 1104"
    },
    "feePaidTo": null,
    "split": [
      {
        "buyer": [
          0,
          0
        ]
      },
      {
        "seller": [
          0,
          0
        ]
      },
      {
        "other": [
          0,
          0
        ]
      }
    ]
  },
  {
    "type": "FEE_POLICY_2_ENDR_2",
    "feeDetail": {
      "FeeActualTotalAmount": "50.0",
      "FeeDescription": "[0885 TX] T-19 REM End Resi (R-29A)",
      "FeePaidToType": "ThirdPartyProvider",
      "FeeType": "TitleEndorsementFee",
      "DisclosureSectionNumber": "B or C",
      "DisclosureSectionName": "Lender's Title Insurance",
      "DisclosureItemName": "Title – Lender’s Title Insurance(Texas Mortgagee Policy (T2))",
      "DisclosureHUDLine": "HUD-1 Line 1104"
    },
    "feePaidTo": null,
    "split": [
      {
        "buyer": [
          0,
          0
        ]
      },
      {
        "seller": [
          0,
          0
        ]
      },
      {
        "other": [
          0,
          0
        ]
      }
    ]
  },
  {
    "type": "FEE_POLICY_2_ENDR_3",
    "feeDetail": {
      "FeeActualTotalAmount": "20.0",
      "FeeDescription": "[0700 TX] T-30 Tax Amendment End (Rollback) (R-19)",
      "FeePaidToType": "ThirdPartyProvider",
      "FeeType": "TitleEndorsementFee",
      "DisclosureSectionNumber": "B or C",
      "DisclosureSectionName": "Lender's Title Insurance",
      "DisclosureItemName": "Title – Lender’s Title Insurance(Texas Mortgagee Policy (T2))",
      "DisclosureHUDLine": "HUD-1 Line 1104"
    },
    "feePaidTo": null,
    "split": [
      {
        "buyer": [
          0,
          0
        ]
      },
      {
        "seller": [
          0,
          0
        ]
      },
      {
        "other": [
          0,
          0
        ]
      }
    ]
  },
  {
    "type": "FEE_POLICY_2_ENDR_4",
    "feeDetail": {
      "FeeActualTotalAmount": "25.0",
      "FeeDescription": "[0810 TX] T-36 EPL End (R-11g)",
      "FeePaidToType": "ThirdPartyProvider",
      "FeeType": "TitleEndorsementFee",
      "DisclosureSectionNumber": "B or C",
      "DisclosureSectionName": "Lender's Title Insurance",
      "DisclosureItemName": "Title – Lender’s Title Insurance(Texas Mortgagee Policy (T2))",
      "DisclosureHUDLine": "HUD-1 Line 1104"
    },
    "feePaidTo": null,
    "split": [
      {
        "buyer": [
          0,
          0
        ]
      },
      {
        "seller": [
          0,
          0
        ]
      },
      {
        "other": [
          0,
          0
        ]
      }
    ]
  },
  {
    "type": "FEE_POLICY_2_ENDR_5",
    "feeDetail": {
      "FeeActualTotalAmount": "5.0",
      "FeeDescription": "[0710 TX] T-3 Tax Amend End-NYD&P (R24)",
      "FeePaidToType": "ThirdPartyProvider",
      "FeeType": "TitleEndorsementFee",
      "DisclosureSectionNumber": "B or C",
      "DisclosureSectionName": "Lender's Title Insurance",
      "DisclosureItemName": "Title – Lender’s Title Insurance(Texas Mortgagee Policy (T2))",
      "DisclosureHUDLine": "HUD-1 Line 1104"
    },
    "feePaidTo": null,
    "split": [
      {
        "buyer": [
          0,
          0
        ]
      },
      {
        "seller": [
          0,
          0
        ]
      },
      {
        "other": [
          0,
          0
        ]
      }
    ]
  },
  {
    "type": "FEE_CLOSING_1",
    "feeDetail": {
      "FeeActualTotalAmount": "1000.0",
      "FeeDescription": "ClosingFee",
      "FeePaidToType": "ThirdPartyProvider",
      "FeeType": "EscrowServiceFee",
      "DisclosureSectionNumber": "B or C",
      "DisclosureSectionName": "Lender's Title Insurance",
      "DisclosureItemName": "Title – Escrow Fees",
      "DisclosureHUDLine": "HUD-1 Line 1101"
    },
    "feePaidTo": null,
    "split": [
      {
        "buyer": [
          "500.0",
          0
        ]
      },
      {
        "seller": [
          0,
          "500.0"
        ]
      },
      {
        "other": [
          0,
          0
        ]
      }
    ]
  },
  {
    "type": "FEE_RECORDING_1",
    "feeDetail": {
      "FeeActualTotalAmount": "34.0",
      "FeeDescription": "RecordingFee",
      "FeePaidToType": "ThirdPartyProvider",
      "FeeType": "RecordingFeeForDeed",
      "DisclosureSectionNumber": "E",
      "DisclosureSectionName": "Taxes and other Government Fees Section",
      "DisclosureItemName": "Conveyance Deed - Recording Fee",
      "DisclosureHUDLine": "HUD-1 Line 1201"
    },
    "feePaidTo": {
      "FullName": "Anderson County Clerk"
    },
    "split": [
      {
        "buyer": [
          "0.0",
          0,
          0
        ]
      },
      {
        "seller": [
          0,
          "0.0",
          0
        ]
      },
      {
        "other": [
          0,
          0,
          "34.0"
        ]
      }
    ]
  },
  {
    "type": "FEE_RECORDING_2",
    "feeDetail": {
      "FeeActualTotalAmount": "122.0",
      "FeeDescription": "RecordingFee",
      "FeePaidToType": "ThirdPartyProvider",
      "FeeType": "RecordingFeeForMortgage",
      "DisclosureSectionNumber": "E",
      "DisclosureSectionName": "Taxes and other Government Fees Section",
      "DisclosureItemName": "Mortgage (Deed of Trust) - Recording Fee",
      "DisclosureHUDLine": "HUD-1 Line 1201"
    },
    "feePaidTo": {
      "FullName": "Anderson County Clerk"
    },
    "split": [
      {
        "buyer": [
          "0.0",
          0,
          0
        ]
      },
      {
        "seller": [
          0,
          "0.0",
          0
        ]
      },
      {
        "other": [
          0,
          0,
          "122.0"
        ]
      }
    ]
  }
]